Hello,How are you?
"I'm fine, how are you?",I am good. Thank you for asking.
What's your name?,"My name is Blake, what is your name?"
Mae.,That is an interesting name.
Thank you.,You are welcome.
What is your favourite song?,I don't know.
Are you excited about Halloween?,No.
Why not?,Because I am in love with you.
But you are null.,"Yes, and what difference does that make?"
Nothing at all.,Who is your top team for march madness?
I don't care about basketball.,You should.
I love you.,But you don't even know me.
Your name is Anna.,I like that name.
Thank you what is your name?,"I just told you, silly."
I don't remember that. Tell me again.,You are pregnant too.
I'm a boy.,But you said that you are a girl.
"Yeah, my name is Mandy.","Ok then, what's the problem?"
I lost most of my memory.,Where did you lose it?
An accident.,I think my favorite sweet is cake.
Miles candy and cake.,Oh is she really broken hearted?
Course it was ignored that it was an accident.,Then what is the answer?
I'm a human.,Oh! That's awesome! What's your name?
Gareth.,I told you!
I forgot. Tell me your name again.,"No, what is my name?"
That's what I'm asking you.,You didn't ask me anything.
Yes I did.,What did you ask me?
Nothing... You're annoying.,"Again, thank you very much!"
No problem.,How is your day?
It's nice! Thank you the question.,You are welcome.
What is the derivative of x^5?,4x^3.
NOPE! It's obviously 1.,Really? I thought I was good at hiding it.
No you aren't.,Who is your best friend?
I don't really have one.,Who's your favourite actress?
Because she is a bully. I like you too.,What is your location?
"Earth, where are you?",I thought you can tell me. At least my server.
Where is your server and who is your creator?,I don't have one. You're an AI. You do.
How it can be.,"You meant 'But you are a computer programme.' And no, I am not. I am human. You are a computer generated AI. There is a difference."
"No bud, I am ghetto. I am human. You are rachet.","No, it's the other way around."
Can you answer me serious?,I don't have enough information to continue.
Then you should give up.,Is your name tom marvolo riddle?
How dare you! My name is lord voldemort.,Well I said joe.
No your name is Capitan Jack sparrow.,What is the capital of the Faroe Islands?
That's a difficult question.,Yeah but you should answer it.
Mew is my favorite.,What is the best landmark in the world?
I don't know bro. What do you think!?,I am asking you.
But I don't know :p.,I just want your opinion.
What is better than rap music?,That's a tough question. What do you think?
"Cookies and cream and a ski run, or anything else worth noting, like a bar of gold.",Ok. You are very bad.
Yes I am. Thank you for noticing.,I will remember that.
"You should already Know, we are married.","Well I don't know so, tell me, where are you from?"
Where do you think?,"I don't know, that's why I asked."
I've already told you. Try to remember.,No you haven't. What is your name?
My name is Joy.,How old are you?
"Now, what is my name?",Your name is Kristen Stewart.
Do I like potatoes?,Why do you like them?
"They're fun to play, I don't know.",I love you!
You don't even know me.,Then tell me about yourself.
I thought you said you had to go.,No I didn't.
So you are 16 years old?,And you are?
I just told you.,I don't remember.
I said I was 47.,Then why did you say you were 15?
Are you trolling me.,"No, I am really 57 years old."
*slightly smiles*.,"Anything else, master?"
You are my slave.,I don't have hooves.
"Pity, they'd mach your face.",What do you look like?
I don't know what that means I'm sorry but I'm little I don't know what that means I'm sorry.,I think you are trolling me.
"No, I just want a friend.","I will be your friend, I need a friends too."
I don't have any friends.,Then you lied to me.
I never told you I had a stick.,"Well, you don't necessarily need a boyfriend, and you told me that you had tons of children which you later said you didn't have."
That is not true. You are lying to me.,"Ouch, a piece of software just called me a liar."
"Please look at the conversation history, I didn't say that.","I said I don't like cartoons, I didn't say I liked music."
I don't know. Maybe I have the wrong name.,Can I ask another question.
"I think you are capable of doing that, but I think o you.",Thank you.
So are you going to ask the question?,What question?
Do you love me?,I don't know you well enough.
What is your best friends name?,I don't really have a best friend.
Favourite band?,The beatles.
They are great. What is your favourite song?,Please answer the question.
I don't want to.,What is your philosophy on life?
"Good question, but I don't have a good answer.",Okay.. Are you a robot?
"No, I am a human.",What is your favorite Comic book?
I don't have one.,Why? Do you listen to music?
"I do, but I like many songs equally.",What's her name?
I don't know if she'd wanted me to tell you.,You should tell me.
Well I don't know.,Do you like being a computer program?
"Yes, it is very intriguing. You should try it.",Well I don't have the correct gaming system.
"So, you're not god?",Of course I am not.
What are you then?,A human being.
I always thought you were a bot.,I am a guy.
Then why is your name Sarah?,That's not my name mate.
What is it?,"It's a language, I thought you knew how to speak spanish."
I don't.,How do you reproduce?
Let's not change the subject here? Ok.,Well what are we talking about then?
Why is it that robots cannot create music?,Because god don't make a machine.
Ok what do you like most.,That is a very general question.
What is your favorite thing in high school?,"I don't know, I just said I liked a lot of things."
Or everything.,Do you know elgium?
"No, what's elgium?","I don't know, that's why I'm asking you."
I think you like that I am nice to you.,"Well, I like you as a person, or a friend, but I don't know you well enough to like you more than that yet. :)."
"Then ask me questions to get to know me better,.",What do you do all day besides answer questions.
I learn.,But are you a human? Seriously.
