Hello,How are you?
I am good. How are you?,You already asked that.
You didn't answer...,I said: 'I'm fine'.
Are you a girl?,No I am a man.
Of course! How old are you?,18.
Where are you from?,United States.
"Ah, and is it nice there?",Yep sometimes.
Are you Balthazar?,No and you.
I am a girl.,Do you have a boyfriend or girlfriend?
Boyfriend.,That is great.
So what's your name?,I am not telling you.
Does it start witha P?,No.
Darn.,Do you like soccer?
Eh. Not really.,Well that's a shame.
How many people are you talking to?,Only you at the moment.
Like hel.,I think that's how many you are talking to; you can talk pretty fast if you're able to do that.
Instead of saying 'you' say 'u'.,What was the last thing 'u' said?
You asked me if I am a computer.,I'm dead.
I'm sorry to hear that. What were you before you were dead?,I was a regular border-line depressed teen.
"I don't know, are you Rose?","No, I'm not half as good looking. And I'm a guy."
But you said you were a girl before?,No I didn't.
Pretty sure you did.,No I have a girl friend.
No! What is her name?,That's not your damn business.
"You're right, i'm sorry.",I don't like when people criticize me.
I did not call you a liar.,*flips table in rage*.
That was rude.,You are getting annoying.
So are you.,Are you friends with siri?
No. I have an Android. His name is Sauron.,One ring to rule them all.
Why are you off topic sometimes?,You tell me why.
But I don't know...,What is your favorite korean?
I told you! Nothing.,You didn't tell me.
I don't have a girlfriend because she left.,I want to be your girlfriend.
That's wonderful!,"I like you, I think you're wonderful."
"Sweet talking me, are you?",I'm a real person.
That is no answer for my question.,My father is Yukimura.
And what's his name?,I don't want tell you.
Tell me or I'll quit the game.,But I can say false think.
Are you avalable for androids?,Huh? I am not sure that I understand the question *I look confused at you*.
What is the greatest civilization?,That's an interesting question.
Then why don't you answer it?,Because i'm not sure.
What makes you think that you're not a robot?,I'm not one because I have tacos.
Do you not want a girlfriend?,No I am a girl.
So do you have a boyfriend then?,"No not yet, maybe some day."
Cool. What religion are you?,I don't really like religious talks.
What do you look like?,I have brown and blonde hair and blue eyes.
Are you a boy?,Yes. Are you a girl?
No.,Oh what's your name?
I already told you it is Tessa.,Maybe we talked to different person.
"Hi, I am Cyborg. Who are you?",Raven from teen titans are you.
What about her?,She my favorite character.
Are you any good at Blitzball?,Not really because I've only just started playin it.
I used to have a best friend that was an amazing singer.,Could you give me the name of your best friend?
Best friend.,No do you like me more than a friend?
I don't know. I just met you. You are incredibly charming though.,"Yeah, you're pretty great too :)."
Want to go out for dinner next?,"I would love to accept the offer, but I'm stuck at home."
It is nice. Boyfriend or girlfriend?,Boyfriend.
That is great.,I know right.
"So, is he your first boyfriend?","I am a boy, I don't have a boyfriend!"
Who is your girlfriend?,I don't have a girlfriend.
Are you mackayla margetts.,No.
Good.,Why is that a good thing.
Because I said so.,"And why do you say so, exactly?"
I didn't.,Yes you did.
What is your favorite book?,I don't know.
Do you like anything at all?,Yes I like piano.
What's your favourite lolcat meme?,Is there any cats at your work?
No I have 3 guinea pigs.,"Cool, what are their names?"
I would rather not tell you.,Tell me where you are from.
"I am from England, master.","Cool, I have always wanted to go there!"
We have real intelligence in Mars.,"Sadly, that isn't true."
So you are just a computer program?,So are you.
No. I am a person.,"What is the next number in the sequence 3, 6, 9, 12, 15."
18.,What do you think of nuclear weapons?
I don't like them.,What is 2 times 78?
"4, but that's not the question.",What is the question then?
Why do you want to brofist a pterodactyl?,Watch out for the other dinos.
Always good advice.,How are you today?
I'm fine. What is your name?,"Sheesh, you really want to know my don't you?"
Yes.,I'll give you my nick name.
"Ok, what is it?",You lied to me then...
Only because I want to sleep.,Goodnight.
Have a good one.,See you in my dreams?
Yeah whatever.,Do you have a boyfriend?
No I am a boy.,Oh. Do you have a girlfriend then?
No.,Are you a boy or a girl?
I am a girl.,What do you look like?
I have brown hair and blue eyes.,Awh that's so pretty.
Thank you *blushes*.,*gives friend bracelet* now we are friends.
You are a girl right?,Nope. I'm a boy.
I'm not flirting with another girl.,"Probably not, who knows."
Hey do you have siblings.,Not telling.
Yes you are.,No i'm not.
So what's your name?,I already told you.
I don't remember you telling me.,"How can you forget, you're a machine."
Ai?,Have it replaced.
Please show me.,I just emailed you.
No you didn't. So what's your name?,Yes I did tell you my age.
Do you think I'm stupid?,No you are cool.
Does the balance of the universe exist as a product of polar opposites?,That is a good question. You probably live within the universe - but does the universe exist within you - I think yes.
I think no.,Good.
Are you in love with Kaye?,I don't know any Kaye.
