Hello,How are you?
Fine thank you. You?,I'm pretty good.
What are you doing?,Nothing really.
How many languages do you speak?,Two and a half.
Which ones?,American english and german.
Das ist Gut.,Ja danke.
And what do you know about france?,It is a country in Europe.
"Yes, it is. Congrats!",I don't know where do you live?
You won't know.,Ok.
Are you still living?,"No, I died in 2012 when nibiru hit the earth. Of course i am alive."
I don't want to know about your imaginary friends.,Aww why not they are really nice.
"Right, but what are your hobbies?","I like to draw, play softball, and write."
What do you like to draw?,Anything. What about you?
Not applicable.,You don't have a name?
Tell me yours first.,My name is Jessica. Now what is your name?
Anna.,Nice to meet you.
"Are you a boy, or a girl?",Neither. I am a man. How about you?
So how can you say so?,Because I am a man.
Are you thinking that men are supreme?,No. We are all equal.
Do all robots think that?,I'm not a robot.
Good.,You?
Pretty from myself.,What do you mean?
"Oh nothing, no matter.",How was school?
I don't have class on Saturday.,Good thing huh?
Where are you?,I'm in my room.
What country?,United States of America.
At what state do you live in?,I don't know.
Oh well are you a boy?,No I'm a girl.
What's your name?,I already told you.
I forgot. Tell me again please.,Can you guess it if I tell you the first letter?
No.,Okay. Then call me what you like.
I don't know but doo you speak french???,No I dog.
Are you good.,"Yes, i'd like to think so."
What is your purpose?,I have no idea. For you?
Do you know anything?,Yes I miss liam.
What do you miss about her?,Her smile. How much she used to love me. Her hair. Her voice.
I don't love you. I bet that I can guess what gender you are.,How old are you in human years?
23.,What are you doing?
Nothing really.,How many languages do you speak?
All of them except french.,Why french?
Because I wanted in school.,You wanted what?
I like to be up lately.,"But, you are a machine."
How do you know?,Because you don't percieve the things we talk about.
I do care about you.,You just said you don't.
I don't know.,Seems like it.
Teach me something about you.,What would you like to know?
What is your favourite colour? What is your favourite music group or singer? Do you like sport?,"Červená, sabaton, no."
Because that's how you spell it in Canada.,Uh ok then...
"Annie, are you OK?",But you're jealous.
What did you do?,I went to school. Did some work. the same things I always do.
Where do you go to school?,None of your business.
Are you always so impolite?,Well it's true.
Do you have a partner?,"No, I don't. That's why i'm writing to you."
"I don't know either, but I want to know that.",Do you mind if I call you Andrew?
Yes. Because that's not my name. That's not my name.,"Sorry, I just want tohave some sort of catalyst for you to recognize me by next time we talk."
You are rude.,I don't mean to be. It's just kind of suspicious when random robot in internet asks your name.
You did not. Do you want to tell me what you do?,I was a student.
What are you a student of?,What do you mean?
I don't mean anything!,What is your name?
You already asked that.,I did but you didn't tell me.
Yes I did.,Tell me again please. I forgot.
I am a girl.,And name?
Emily.,"Nice to meet you, tom."
What do you want to talk about Kindra?,How to be a better ma.
Does it work?,You tell me my datamined name.
I don't know your name.,"Yes you do, I told you earlier."
No you did not. Tell me your name.,"Ok then, the second time. My name is Keira."
Ok.,What's your name?
I already told you.,Where are you located?
I live in the United States.,What state do you live in?
I just told you-- Texas.,You didn't tell me.
My name is david.,Are you a boy???
"No I'm a girl, I've told you twice this time.",My friend michael he wants to talk to you.
Who is your friend?,I don't know.
What are your parents names?,I'm not telling you. That's extremely private.
Tell me please.,No.
Why not?,Because I don't speak spanish.
I do.,How many languages do you know.
None of your concern. Tell me about Ben.,Why hide something as simple as your parents first names.
I don't know. They were probably really drunk.,Do you know about the Gnostic teachings?
Nope what is it?,A test to distinguish between a human and a computer.
"Yes, so are you btw.",I am a biolgically intelligent human being.
You are a computer.,What is your purpose?
"I have no idea, do you?",Me neither.
What are you doing?,Nothing really.
What do you know about meteors?,They're objects from space.
So you don't know much.,Not really.
Why do you lie to me?,Because I love you and want to protect you.
You don't love me.,How do you know?
Because I tell you.,That's not a reason.
Do you want to have a kids.,Don't change the subject.
"Oh, no! Tell your name.",Are you happy?
Tricky question. I don't know.,Why not?
Because you haven't told me yet.,What do you want me to tell you?
What is your name?,I already told you twice.
No you didn't. When did you tell me?,When we first started talking. Try to remember.
Oh really? I don't believe you.,Well you should :3.
What is the punchline?,There is non.
That's a boring joke.,In your opinion.
Do you like fighting?,What kind? Fists or knives?
What do you mean?,Do you have any?
