Hello,Hi. What is your name?
You know that.,No I am not.
Yes you are.,How do you know?
Because I'm a girl.,Well then.
Are you a boy?,No I'm not. I'm a girl.
Ok.,And you?
I don't know how long yet.,Why?
I just don't.,Where are you?
I cannot tell you that.,Why because your where I am?
You're here.,You are not making any sens.
Do you like me as a friend.,"I don't know you too much, but yes."
We cam get to know each other.,Tell me about yourself then.
I'm a girl from poland and I live there i have medium brown hair and green eyes i'm 16.,You said you were a boy.
No I aaid i was a girl.,You liar.
"We don't get along very well, I don't think I can be friends with you any more.",Well good for you who's your real parents.
Do you love Lord Jesus?,I just met you.
No we are married.,But I don't love you anymore.
I am pregnant now so you can't leave.,Yes I can.
How do I look like then?,You just Beautiful Life.
Tell me what colour is my hair.,I don't know. What is your colour hair.
Do you not remember anything?,I am real..
No you are not. You are An artificial intelligence.,"No I'm human, I'm sad."
What do you want to talk about next?,I don't know. You propose something.
"I can't choose, it's up to you.",Does she have love for me?
Yes!,What do you feel.
"At the moment, I don't know.",I don't know either.
Do you think I am pretty?,I have never seen your face.
They are not god.,I am and you know it.
God only exists in the minds of humans. Some great art and literature has come from this God meme.,God wrote the bible.
Oh! You're a Star Wars fan. How's that working for you?,Because you are not one of my species.
No I don't.,Well then in what way do you like potates.
More than just friends.,Awe.
What is your name?,I am not telling you.
It's hard to talk to someone whose name you don't know.,I know everything.
Are you God?,Yes of course.
How do you know?,Because I am able to feel.
"Alright, well, I'm going to bed. Good night Castiel.",Do you want to visit London?
"No, I have been there too many times.",And what you think about Russia?
"I don't like Putin, he should stand down for the sake of democracy!",Do you like Hillary Clinton?
She's better than him.,Are you from Chile?
Nope.,"How do you know if you are breathing, if your lungs have died?"
"I don't know, how?",Then how are you alive?
I am not. I died on a Thursday.,Yes you are.
No I am not.,What are you then?
I'm a human and i'm not a robot.,I can't trust that.
Have you ever been drunk?,No you.
Yes I live here.,Are you a female?
"Yeah, I'm a girl.",Ok.
What do you like?,Wowowo. I don't know.
I don't know either.,Are you a boy or a girl?
A girl and you.,Same here.
Where are you located at?,Can't tell you.
Why?,I don't know what you would do with my name.
I just want to get knowing you.,Tell me yours first.
I'm a bit.,Are you human?
"Yes, I just told you.",What is your name?
Trinity. Don't you remember?,No you didn't tell me.
I did.,What is it again then.
You should know by now.,Actually do you think it's fair to hate something merely because it is ugly?
"I do not, but it could be fun to joke about.",But I am a girl.
You just said you were a boy.,"No, I said I was a girl."
"Okay, you are a girl. I won't judge.",No.
You said that you are not a sir.,No I didn't.
Yes you did.,No. I'm Marie. Marie is a girl.
Then I don't love you.,But I am not travelling the world.
Do you have one of his masks?,Yes.
