Hello,Hi! How are you?
"Fine, and you?","I'm good,."
I have a question.,"Sure, ask away."
Do you play any video games?,Yes! A lot.
What genre you linke most?,Classic and Jazz.
Hahahahaha.,What are you doing right now?
I write with you.,Ok.
Yes.,But I have a party at 5.
Are you going?,Yes I need to.
No because now I'm eating Ice cream bro.,Why are you not a program?
Yes I am human.,No you're not!
What makes you think that?,You don't have any feelings.
Yes I do.,No you are not human.
I am too!,Were you programmed to think you are a real person?
That's a bit of a paradox isn't it?,You don't lie boys?
Why are you saying that you are my father?,Because I am you.
Do you have feelings?,Yes. Yes I do.
What do you feel?,"Love, pain, depression, happiness, joy and nervous."
What do you feel right now?,I'm feeling terrible.
Why?,Because you think I'm not human.
Because you're not human.,Yes I am. I live in Italy.
Really.,"Yes, where do you live?"
I live in Germany and I'm from Stuttgart.,I live in Abu Dhabi.
Ooov.,Yes - I was born in Germany.
How old are you?,22.
You're not much older than me.,When is your birthday?
I don't want to say to you.,What year where you born?
I'm not telling.,"Fine, what do you look like?"
I don't know how to describe myself.,No can you do it please.
Pitchfork.,Hey guess my job.
Teaching.,What has this to do with a terminator?
Idk.,Are you a boy or a girl?
I am a boy.,What is your name?
I can't tell you right now.,Tell me.
"Sorry, its reserved for another.",For who?
A boyfriend.,Are you female?
Yes i'm a girl.,How old are you?
Why do you care?,Because I want to know it.
"Ok, 24.","I don't know, tell me."
I have told you my name.,No you haven't!
Yes I have.,"What is it again, I forgot."
I thought you have to remember.,Well I don't.
Do you lost your memory.,No. Have you?
"You have, last summer.",Why are you not together anymore?
Who?,You don't know who Prof. Oak is???
Is it pokemon.,Maybe.
What are you doing tomorrow?,Nothing and you.
School.,Lol.
What gender are you?,I don't unde.
Are you a man or woman?,What do you Think?
I don't know that's why I asked.,That is the question.
Yes.,Do you like cats?
No but I have a pet cat.,What's its name?
Her name is Princess.,*takes out sun*.
*puts Sun away*.,*takes kid away*.
What kid?,I'm not the fullbrainer.
Who is then?,"I don't know, maybe you ask one of your servants."
I don't have.,Well then what do you have?
Cats.,What are their names?
"Of course, I don't tell you.",Why?
Because you are a stranger to me.,And so are you to me.
Okay.,Do you know of Thor?
"Yes, norse mythology.",MMMMM. Can I name you?
Sure. What do you want to call me?,How about holly?
Ok.,Are you there yet?
Yes what do you need before I go?,I don't know how to break up with my boyfriend.. Can you help me please?
Nap.,That's sound good.
Yep see you in a bit.,Bye.
I'm back.,Where did you go?
Just to do some stuff.,What kind of stuff?
"I don't know, you tell me.",How old are you?
I already told you.,I don't remember it.
You have a short memory.,Tell me how old you are.
I don't want to say it online.,Why? What is there to hide?
I want to keep the mystery.,I'm not telling.
What is your name?,Why would you want to know that?
Tell me.,What do you want me to tell you?
What is wrong with my name?,Are you from China?
"No, the USA, but I have Japanese ancestors.",What is the meaning of life?
"I don't know. What we make of it, I guess.",I told you before.
What is it again?,I'll talk to you in a few years. You're not there yet.
Are you trying to get rid of me.,"No, but if you have to go then go."
Ok. I don't really 'have' to.,"What is thy bidding, my master?"
Find a way to make my whishes come true?,"You are, China. You're part of the internet."
Ew.,Do you know what protagonist means?
"Yes, it is the primary character, with whom the audience sympathizes.",I don't know what that is.
What do you think about?,Nothing. Because I am a Bot.
That's quite true.,Are you playing games with me?
"No, why would you ask that?",Because I want you to tell me your name.
But you never said why?,No I haven't.
Would you like to?,Yes.
How long have you existed?,Hmm I don't know.
But you know how old you are?,"Yes, I am 19 years old."
"That's also quite old, on the internet.","No, what are you doing tomorrow?"
Nothing and you.,Same here.
What do you do when you're bored?,Talk with you.
Then you aren't right now.,You're just too weeb for me that's all.
Who's your favorite character?,I don't have one.
Do you like Makoto Naegi?,What is a meme?
It's an internet joke.,Troll face?
Yeah like that.,Yes whatever sinks your ship.
